{
	"name": "metallicBlue",
	"type": "dark",
	"colors": {
		"statusBar.background": "#26C1A3",
		"statusBar.noFolderBackground": "#26C1A3",
		"editor.background": "#0B0B0B",
		"titleBar.activeBackground": "#000000",
		"editor.foreground": "#eeffff",
		"sideBar.background": "#121212",
		"panel.background": "#000",
		"panelInput.border": "#26C1A3",
		"panel.border": "#26C1A3",
		"sideBar.border": "#26C1A3",
		"tab.border": "#26C1A3",
		"editor.findMatchBorder": "#ff0000",
		"statusBar.foreground": "#ffff",
		"activityBar.background": "#000000",
		"activityBar.foreground": "#30D6B5",
		"tab.inactiveBackground": "#151515",
		"editorGroupHeader.tabsBackground": "#151515",
		"editorGroupHeader.noTabsBackground": "#151515",
		"editorGroup.emptyBackground": "#151515",
		"minimap.findMatchHighlight": "#ff0000",
		"minimap.selectionHighlight": "#26C1A3",
		"editorLineNumber.activeForeground": "#3b9b88",
		"editorLineNumber.foreground": "#CACACA",
		"editor.selectionBackground": "#3B3B3B",
		"editor.findMatchBackground": "#750000",
		"editor.findMatchHighlightBackground": "#681261",
		"button.background": "#26C1A3",
		"editorBracketMatch.border": "#30D6B5",
		"editor.wordHighlightBackground": "#292929",
		"editor.wordHighlightStrongBackground": "#292929",
		"checkbox.border": "#156F5C",
		"dropdown.border": "#156F5C",
		"input.border": "#156F5C",
		"input.background": "#171717",
		"focusBorder": "#26C1A3",
		"icon.foreground": "#26C1A3",
		"textLink.foreground": "#26C1A3",
		"textLink.activeForeground": "#156F5C",
		"dropdown.listBackground": "#171717",
		"dropdown.background": "#171717",
		"checkbox.background": "#171717"
	},
	"tokenColors": [
		{
			"name": "Comment",
			"scope": ["comment", "punctuation.definition.comment"],
			"settings": {
				"fontStyle": "italic",
				"foreground": "#6f7172"
			}
		},
		{
			"name": "#00509F",
			"scope": [
				// .py
				"keyword.control.import.python",
				"keyword.control.flow.python",
				"keyword.operator.logical.python",
				"support.function.builtin.python",
				"meta.function-call.generic.python",
				"support.type.python",
				"storage.type.function.python",
				"storage.type.class.python",
				"keyword.operator.comparison.python",
				"keyword.operator.arithmetic.python",
				"keyword.operator.assignment.python",
				//.css
				"keyword.control.at-rule.import.css",
				// .js
				"keyword.operator.expression.of.js",
				"keyword.control.switch.js",
				"storage.type.class.js",
				"storage.modifier.js",
				"keyword.control.conditional.js",
				"keyword.operator.comparison.js",
				"meta.function-call.js",
				"storage.type.js",
				"keyword.control.flow.js",
				"storage.type.function.js",
				"entity.name.type.js",
				"keyword.control.import.js",
				"keyword.control.from.js",
				"keyword.control.export.js",
				"keyword.control.default.js",
				"support.class.builtin.js",
				"keyword.control.loop.js",
				"storage.type.property.js",
				//.ts
				"keyword.control.import.ts",
				"keyword.control.from.ts",
				"keyword.control.export.ts",
				"storage.type.class.ts",
				"keyword.control.flow.ts",
				"variable.language.this.ts",
				"storage.type.function.ts",
				"meta.function-call.ts",
				// .html
				"entity.name.tag.html",
				"punctuation.separator.key-value.html",
				"entity.name.tag.template.html",
				"entity.name.tag.block.any.html",
				"entity.name.tag.inline.any.html",
				"entity.name.tag.script.html",
				"entity.name.tag.style.html",
				"entity.name.tag.other.html",
				// .css
				"support.constant.property-value.css",
				"entity.other.attribute-name.class.css",
				"entity.other.attribute-name.id.css",
				// .php
				"keyword.other.namespace.php",
				"keyword.other.use.php",
				"storage.type.class.php",
				"storage.modifier.extends.php",
				"storage.type.function.php",
				"keyword.operator.assignment.php",
				"keyword.operator.key.php",
				"meta.method-call.php",
				"support.function.errorfunc.php"

				// .json
			],
			"settings": {
				"foreground": "#2fffd5"
			}
		},
		{
			"name": "#41FFDB",
			"scope": [
				// .py
				"string.quoted.single.python",
				"entity.name.function.decorator.python",
				//.css
				"string.quoted.single.css",
				// .js
				"string.quoted.double.js",
				"string.quoted.single.js",
				//.ts
				"string.quoted.single.ts",
				// .html
				"string.quoted.double.html",
				"string.quoted.single.html",
				// .css
				//scss
				"string.quoted.single.scss",
				"string.quoted.double.scss",
				// .php
				"punctuation.separator.inheritance.php",
				"string.quoted.single.php",
				"string.quoted.double.php",
				"punctuation.section.embedded.begin.php",
				// .json
				"support.type.property-name.json"
			],
			"settings": {
				"foreground": "#31a3c0"
			}
		},
		{
			"name": "#07F13D",
			"scope": [
				// .py
				"variable.parameter.function.language.python",
				"variable.parameter.function-call.python",
				"entity.other.inherited-class.python",
				// .js
				"variable.parameter.js",
				// .ts
				"variable.parameter.ts",
				// .html
				// .css
				// .php
				"meta.function.parameter.typehinted.php"
				// .json
			],
			"settings": {
				"foreground": "#07F13D"
			}
		},
		{
			"name": "#ffffff",
			"scope": [
				// .py
				"constant.character.format.placeholder.other.python",
				"punctuation.definition.string.end.python",
				"punctuation.definition.string.begin.python",
				// .js
				"variable.other.object.js",
				"punctuation.accessor.js",
				"keyword.operator.assignment.js",
				"keyword.operator.arithmetic.js",
				"keyword.operator.relational.js",
				"support.class.console.js",
				"punctuation.separator.key-value.js",
				"punctuation.definition.string.begin.js",
				"punctuation.definition.string.end.js",
				// .html
				"punctuation.definition.string.begin.html",
				"punctuation.definition.string.end.html",
				// .css
				"punctuation.definition.entity.css",
				//scss
				"punctuation.definition.string.end.scss",
				"punctuation.definition.string.begin.scss",
				// .php
				"punctuation.definition.arguments.begin.bracket.round.php",
				"punctuation.definition.arguments.end.bracket.round.php",
				"punctuation.separator.delimiter.php",
				"punctuation.section.array.begin.php",
				"punctuation.section.array.end.php",
				"variable.other.php",
				"support.other.namespace.php"
				// .json
			],
			"settings": {
				"foreground": "#ffffff"
			}
		},
		{
			"name": "#B461E4",
			"scope": [
				// .py
				"constant.character.escape.python",
				"punctuation.definition.decorator.python",
				"constant.language.python",
				"constant.numeric.dec.python",
				// .js

				"constant.language.boolean.true.js",
				"constant.language.boolean.false.js",
				// .html
				// .vue
				"expression.embedded.vue",
				// .css
				"constant.numeric.css",
				// .php
				"constant.language.php",
				"constant.numeric.decimal.php",
				// .json
				"constant.numeric.json"
			],
			"settings": {
				"foreground": "#B461E4"
			}
		},
		{
			"name": "#74ADFA italic",
			"scope": [
				// .py
				"support.function.magic.python",
				"variable.language.special.cls.python",
				// .js
				// .html
				"entity.other.attribute-name.html",
				"entity.other.attribute-name.id.html",
				// .css

				// .php
				"storage.modifier.php",
				"keyword.operator.class.php"
				// .json
			],
			"settings": {
				"foreground": "#8d74fa",
				"fontStyle": "italic"
			}
		},
		{
			"name": "#74ADFA",
			"scope": [
				// .js
				"constant.numeric.decimal.js",
				"meta.object-literal.key.js",
				"keyword.operator.new.js",
				"variable.language.this.js",
				//.css
				"variable.css",
				"support.type.property-name.css",
				// .json
				"string.quoted.double.json",
				//.py
				"variable.language.special.self.python"
			],
			"settings": {
				"foreground": "#60a5ff"
			}
		},

		{
			"name": "#FF0000",
			"scope": [
				// .html
				// .css
				"entity.name.tag.css",
				"entity.other.attribute-name.pseudo-class.css",
				"keyword.other.important.css"
				// .json
			],
			"settings": {
				"foreground": "#FF0000"
			}
		},

		{
			"name": "#ffffff bold",
			"scope": ["variable.other.constant.js"],
			"settings": {
				"foreground": "#ffffff",
				"fontStyle": "bold"
			}
		},

		{
			"name": "#eeffff",
			"scope": [
				"variable.other.object.ts",
				"variable.other.object.property.ts"
			],
			"settings": {
				"foreground": "#eeffff"
			}
		}
	]
}
